{
    "compilerOptions": {
        "target": "ES5",
        "checkJs": true,
        "dist": [
            "es5",
            "DOM",
            "es2015.promise"
        ]
    },
    "exclude": [
        "node_modules",
        "**/node_modules/*"
    ]
}